{
  "project_info": {
    "project_number": "1049924170055",
    "project_id": "flutter-73330",
    "storage_bucket": "flutter-73330.appspot.com"
  },
  "client": [
    {
      "client_info": {
        "mobilesdk_app_id": "1:1049924170055:android:c51c589ce625eadab19c62",
        "android_client_info": {
          "package_name": "za.mtn8.app"
        }
      },
      "oauth_client": [
        {
          "client_id": "1049924170055-k19o4m2iu3fpo41uroulpsiu5227gakq.apps.googleusercontent.com",
          "client_type": 3
        }
      ],
      "api_key": [
        {
          "current_key": "AIzaSyDaWjmDpfwV6XvWgeWKgna9LVI6bHRWXWc"
        }
      ],
      "services": {
        "appinvite_service": {
          "other_platform_oauth_client": [
            {
              "client_id": "1049924170055-k19o4m2iu3fpo41uroulpsiu5227gakq.apps.googleusercontent.com",
              "client_type": 3
            }
          ]
        }
      }
    }
  ],
  "configuration_version": "1"
}